An치lisis Epidemiol칩gico en R
…
3.3 Generar tabla Kaplan Meier

fit <- survfit(Surv(ttoaidsorexit, aids) ~ ccr5, data =  coxdb)

#summary(fit)
fit %>% broom::tidy() #revisa el estrato!

## # A tibble: 451 x 9
##     time n.risk n.event n.censor estimate std.error conf.high conf.low strata  
##    <dbl>  <dbl>   <dbl>    <dbl>    <dbl>     <dbl>     <dbl>    <dbl> <chr>   
##  1    33     84       1        0    0.988    0.0120     1        0.965 ccr5=Yes
##  2   482     83       0        1    0.988    0.0120     1        0.965 ccr5=Yes
##  3   731     82       0        1    0.988    0.0120     1        0.965 ccr5=Yes
##  4   796     81       1        0    0.976    0.0173     1        0.943 ccr5=Yes
##  5   815     80       0        1    0.976    0.0173     1        0.943 ccr5=Yes
##  6   879     79       0        1    0.976    0.0173     1        0.943 ccr5=Yes
##  7   885     78       0        1    0.976    0.0173     1        0.943 ccr5=Yes
##  8   954     77       1        0    0.963    0.0216     1        0.923 ccr5=Yes
##  9  1006     76       1        0    0.951    0.0254     0.999    0.904 ccr5=Yes
## 10  1019     75       0        1    0.951    0.0254     0.999    0.904 ccr5=Yes
## # ... with 441 more rows
…
